%YAML 1.1
%TAG !u! tag:unity3d.com,2011:
--- !u!74 &7400000
AnimationClip:
  m_ObjectHideFlags: 0
  m_CorrespondingSourceObject: {fileID: 0}
  m_PrefabInstance: {fileID: 0}
  m_PrefabAsset: {fileID: 0}
  m_Name: Jump2
  serializedVersion: 6
  m_Legacy: 0
  m_Compressed: 0
  m_UseHighQualityCurve: 1
  m_RotationCurves: []
  m_CompressedRotationCurves: []
  m_EulerCurves: []
  m_PositionCurves: []
  m_ScaleCurves: []
  m_FloatCurves: []
  m_PPtrCurves:
  - curve:
    - time: 0
      value: {fileID: 21300000, guid: 34879ff1d0520472495ca9cd6593a643, type: 3}
    - time: 0.021276595
      value: {fileID: 21300000, guid: 08c79506a7aab4b5482e1596dda6a6f5, type: 3}
    - time: 0.04255319
      value: {fileID: 21300000, guid: 84ae79b0ae42044f9bf7118c88e4c704, type: 3}
    - time: 0.06382979
      value: {fileID: 21300000, guid: 34879ff1d0520472495ca9cd6593a643, type: 3}
    - time: 0.08510638
      value: {fileID: 21300000, guid: 08c79506a7aab4b5482e1596dda6a6f5, type: 3}
    - time: 0.10638298
      value: {fileID: 21300000, guid: 84ae79b0ae42044f9bf7118c88e4c704, type: 3}
    - time: 0.12765957
      value: {fileID: 21300000, guid: 34879ff1d0520472495ca9cd6593a643, type: 3}
    - time: 0.14893617
      value: {fileID: 21300000, guid: 08c79506a7aab4b5482e1596dda6a6f5, type: 3}
    - time: 0.17021276
      value: {fileID: 21300000, guid: 84ae79b0ae42044f9bf7118c88e4c704, type: 3}
    - time: 0.19148937
      value: {fileID: 21300000, guid: 34879ff1d0520472495ca9cd6593a643, type: 3}
    - time: 0.21276596
      value: {fileID: 21300000, guid: 08c79506a7aab4b5482e1596dda6a6f5, type: 3}
    - time: 0.23404256
      value: {fileID: 21300000, guid: 84ae79b0ae42044f9bf7118c88e4c704, type: 3}
    attribute: m_Sprite
    path: 
    classID: 212
    script: {fileID: 0}
  m_SampleRate: 94
  m_WrapMode: 0
  m_Bounds:
    m_Center: {x: 0, y: 0, z: 0}
    m_Extent: {x: 0, y: 0, z: 0}
  m_ClipBindingConstant:
    genericBindings:
    - serializedVersion: 2
      path: 0
      attribute: 0
      script: {fileID: 0}
      typeID: 212
      customType: 23
      isPPtrCurve: 1
    pptrCurveMapping:
    - {fileID: 21300000, guid: 34879ff1d0520472495ca9cd6593a643, type: 3}
    - {fileID: 21300000, guid: 08c79506a7aab4b5482e1596dda6a6f5, type: 3}
    - {fileID: 21300000, guid: 84ae79b0ae42044f9bf7118c88e4c704, type: 3}
    - {fileID: 21300000, guid: 34879ff1d0520472495ca9cd6593a643, type: 3}
    - {fileID: 21300000, guid: 08c79506a7aab4b5482e1596dda6a6f5, type: 3}
    - {fileID: 21300000, guid: 84ae79b0ae42044f9bf7118c88e4c704, type: 3}
    - {fileID: 21300000, guid: 34879ff1d0520472495ca9cd6593a643, type: 3}
    - {fileID: 21300000, guid: 08c79506a7aab4b5482e1596dda6a6f5, type: 3}
    - {fileID: 21300000, guid: 84ae79b0ae42044f9bf7118c88e4c704, type: 3}
    - {fileID: 21300000, guid: 34879ff1d0520472495ca9cd6593a643, type: 3}
    - {fileID: 21300000, guid: 08c79506a7aab4b5482e1596dda6a6f5, type: 3}
    - {fileID: 21300000, guid: 84ae79b0ae42044f9bf7118c88e4c704, type: 3}
  m_AnimationClipSettings:
    serializedVersion: 2
    m_AdditiveReferencePoseClip: {fileID: 0}
    m_AdditiveReferencePoseTime: 0
    m_StartTime: 0
    m_StopTime: 0.24468085
    m_OrientationOffsetY: 0
    m_Level: 0
    m_CycleOffset: 0
    m_HasAdditiveReferencePose: 0
    m_LoopTime: 0
    m_LoopBlend: 0
    m_LoopBlendOrientation: 0
    m_LoopBlendPositionY: 0
    m_LoopBlendPositionXZ: 0
    m_KeepOriginalOrientation: 0
    m_KeepOriginalPositionY: 1
    m_KeepOriginalPositionXZ: 0
    m_HeightFromFeet: 0
    m_Mirror: 0
  m_EditorCurves: []
  m_EulerEditorCurves: []
  m_HasGenericRootTransform: 0
  m_HasMotionFloatCurves: 0
  m_Events: []
